C:\Users\Ruben\OneDrive\Ambiente de Trabalho\thesis_software\pipeline-automation\global\mongo\src\main\java\com\tmdei\utils\mongo\exceptions\MongoException.java
C:\Users\Ruben\OneDrive\Ambiente de Trabalho\thesis_software\pipeline-automation\global\mongo\src\main\java\com\tmdei\utils\mongo\config\MongoConfig.java
C:\Users\Ruben\OneDrive\Ambiente de Trabalho\thesis_software\pipeline-automation\global\mongo\src\main\java\com\tmdei\utils\mongo\MongoUtils.java
